{
    "guid":"bc3650a0-9f66-4c88-93d4-7d1a79a9f546",
    "mesh":"game:modus/meshes/asteroids/wireframe.mesh",
    "materials": [
        "game:modus/materials/asteroids/wireframe.rmaterial"
    ],
    "collision_shape_type": "BVSphere"
}

