{
    "guid":"8770e12f-9724-4e43-8794-72bd27bcb186",
    "mesh":"cage_sphere.mesh",
    "mesh_atlas": "game:modus/models/paletted/all.meshatlas",
    "materials": [
        "game:modus/materials/paletted/default_palette.rmaterial"
    ],
    "collision_shape_type": "Mesh",
    "collision_mesh": "game:/modus/meshes/paletted/ship.cmesh"
}

