{
    "guid": "CF080582-8E9E-4845-83F1-6246ED80F67D",
    "name": "Material",
    "disable_culling": false,
    "transparent": false,
    "color": {
        "diffuse": {
            "x": 0.800000011920929,
            "y": 0.800000011920929,
            "z": 0.800000011920929
        },
        "specular": {
            "x": 0.800000011920929,
            "y": 0.800000011920929,
            "z": 0.800000011920929
        },
        "emissive": {
            "x": 0.800000011920929,
            "y": 0.800000011920929,
            "z": 0.800000011920929
        },
        "specular_exp": 10.0,
        "opacity": 1.0
    },
    "maps": {}
}