{
    "transform": {},
    "collision" : {},
    "physics": {
        "collision_shape_type": "Sphere",
        "collision_shape": {
            "radius" : 1.0
        },
        "collision_object_type": "RigidBody",
        "collision_object": {
            "mass": 1.0,
            "ccd": {}
        }
    },
    "graphics": {
        "mesh_path": "game:modus/meshes/laser/laser.mesh",
        "materials": ["game:modus/materials/laser/laser.rmaterial"]
    },
    "light": {
        "light_type": "Point",
        "light" : {
            "radius": 40.0
        },
        "color": { "x": 1.0, "y":0.0, "z":0.0},
        "intensity": 1.0
    },
    "lifetime": {
        "duration_sec": 2.5
    },
    "velocity":{}
}

